worker launched naga.d1.comp.nus.edu.sg
worker launched naga.d1.comp.nus.edu.sg
worker launched naga.d1.comp.nus.edu.sg
worker launched naga.d1.comp.nus.edu.sg
worker launched naga.d1.comp.nus.edu.sg
worker launched naga.d1.comp.nus.edu.sg
worker launched naga.d1.comp.nus.edu.sg
worker launched naga.d1.comp.nus.edu.sg
worker launched naga.d1.comp.nus.edu.sg
worker launched naga.d1.comp.nus.edu.sg
worker launched naga.d1.comp.nus.edu.sg
worker launched naga.d1.comp.nus.edu.sg
[0]
isolated_var_analysis ---------
min_conf found ------------
[1, 7, 0, 1, 1, 1, 1, 1, 3, 2, 1, 1, 1, 1, 1, 5, 1, 4, 1, 4, 1, 5, 1, 7]
######################
refine 1pass [1, 7, 0, 1, 1, 1, 1, 1, 3, 2, 1, 1, 1, 1, 1, 5, 1, 4, 1, 4, 1, 5, 1, 7]
refine 2v pass [1, 7, 0, 1, 1, 1, 1, 1, 3, 2, 1, 1, 1, 1, 1, 5, 1, 4, 1, 4, 1, 5, 1, 7]
end of searching 
######################
refine 1pass [1, 7, 0, 1, 1, 1, 1, 1, 3, 2, 1, 1, 1, 1, 1, 5, 1, 4, 1, 4, 1, 5, 1, 7]
current error 0.0225
refine 2v pass [1, 7, 0, 1, 1, 1, 1, 1, 3, 2, 1, 1, 1, 1, 1, 5, 1, 4, 1, 4, 1, 5, 1, 7]
end of searching 
[1, 7, 0, 1, 1, 1, 1, 1, 3, 2, 1, 1, 1, 1, 1, 5, 1, 4, 1, 4, 1, 5, 1, 7]
