Loop 0 : Permutation vector : ['0.0926']
Result : [2, 1, 0, 1, 7, 8, 7, 6, 5, 3, 2, 1, 1, 1, 2, 8, 1, 9, 1, 7, 1, 7, 1, 6]
------------------------------------
Loop 0 : Permutation vector : ['0.0701']
Result : [2, 1, 0, 1, 7, 8, 7, 6, 5, 3, 2, 2, 1, 1, 2, 8, 2, 9, 1, 8, 1, 7, 1, 6]
------------------------------------
Loop 0 : Permutation vector : ['0.0579']
Result : [2, 1, 0, 1, 8, 8, 7, 6, 5, 3, 2, 2, 1, 1, 2, 9, 2, 9, 1, 8, 1, 7, 1, 6]
------------------------------------
Loop 0 : Permutation vector : ['0.0497']
Result : [3, 2, 0, 1, 8, 8, 7, 6, 5, 3, 2, 2, 1, 1, 2, 9, 2, 9, 1, 8, 1, 7, 1, 6]
------------------------------------
Loop 0 : Permutation vector : ['0.0436']
Result : [3, 2, 0, 1, 8, 9, 7, 6, 5, 3, 2, 2, 1, 1, 2, 9, 2, 10, 1, 8, 1, 7, 1, 6]
------------------------------------
Loop 0 : Permutation vector : ['0.0386']
Result : [3, 2, 0, 1, 8, 9, 7, 7, 5, 3, 2, 2, 1, 1, 2, 9, 2, 10, 1, 8, 1, 8, 1, 6]
------------------------------------
Loop 0 : Permutation vector : ['0.036']
Result : [3, 2, 0, 1, 8, 9, 8, 7, 5, 3, 2, 2, 1, 1, 2, 9, 2, 10, 1, 9, 1, 8, 1, 6]
------------------------------------
Loop 0 : Permutation vector : ['0.0331']
Result : [3, 2, 0, 1, 8, 9, 8, 7, 5, 3, 2, 2, 1, 2, 2, 9, 2, 10, 1, 9, 2, 8, 1, 7]
------------------------------------
Loop 0 : Permutation vector : ['0.0312']
Result : [3, 2, 0, 1, 8, 9, 8, 7, 5, 4, 2, 2, 1, 2, 2, 10, 2, 10, 1, 9, 2, 8, 1, 7]
------------------------------------
Loop 0 : Permutation vector : ['0.0299']
Result : [3, 2, 0, 1, 8, 9, 8, 7, 5, 4, 2, 2, 1, 2, 2, 11, 2, 10, 1, 9, 2, 8, 1, 7]
------------------------------------
Loop -1 : Permutation vector : ['------Final result-------']
Result : [2, 2, 0, 1, 8, 9, 8, 7, 5, 4, 2, 2, 1, 2, 2, 11, 2, 10, 1, 9, 2, 8, 1, 7]
------------------------------------
